06_analysis_2
…
ℹ Use `spec()` to retrieve the full column specification for this data.
ℹ Specify the column types or set `show_col_types = FALSE` to quiet this message.

aggregated_wide <- aggregated_wide |> 
  filter(Donor == "Fresh") |> 
  mutate( Diet = case_when(Diet == "LFPP" ~ 0, Diet == "Western" ~ 1) ) #pca uses numerical values so we modify the diet column

aggregated_wide

# A tibble: 151 × 10
   SampleID  Diet Donor Actinobacteria Bacteroidetes Firmicutes Proteobacteria
      <dbl> <dbl> <chr>          <dbl>         <dbl>      <dbl>          <dbl>
 1      339     1 Fresh       3.16e- 3        0.463       0.470        0.00671
 2      340     1 Fresh       1.80e- 2        0.106       0.811        0.00138
 3      341     1 Fresh       1.21e- 2        0.0443      0.873        0.00792
 4      342     1 Fresh       5.31e- 3        0.145       0.786        0.0135 
 5      343     1 Fresh       8.01e- 3        0.607       0.300        0.0300 
 6      344     1 Fresh       6.31e- 1        0.199       0.141        0.00467
 7      345     1 Fresh       4.16e- 3        0.103       0.826        0.0125 
 8      346     1 Fresh       3.70e- 3        0.135       0.788        0.0285 
 9      347     1 Fresh       5.03e- 4        0.136       0.804        0.0151 
10      348     1 Fresh       2.38e-10        0.219       0.696        0.0152 
# ℹ 141 more rows
# ℹ 3 more variables: TM7 <dbl>, Unclassified <dbl>, Verrucomicrobia <dbl>
…
